0.0,3.4617000000000164
2.6000000000000004E7,12.211031478476876
8000000.000000001,8.383508079262485
1.85E7,4.634461941621161
3.75E7,6.250460894164971
3.0000000000000004E7,7.1572389834105055
1.1000000000000002E7,11.637322073638764
3.6E7,27.450063651066234
2.8500000000000004E7,3.409725006176208
4.700000000000001E7,70.83286339346623
3.3500000000000004E7,10.931683468271844
2.8000000000000004E7,11.083719852283044
4.0E7,14.292249706212647
3.4E7,30.50616325090658
4.900000000000001E7,4.183430958892911
2.9500000000000004E7,7.469590050747665
2.05E7,12.520684133504723
4000000.0000000005,6.403245586297173
1.3000000000000002E7,9.523210360835801
1.5000000000000002E7,7.873883061235864
2.2000000000000004E7,8.224225084030946
4.800000000000001E7,6.260501409326354
2.7500000000000004E7,30.80308283404783
1.4000000000000002E7,5.935909962264346
1.75E7,7.97426695473715
3.55E7,12.17505567188535
4.500000000000001E7,11.711257747379113
7500000.000000001,14.798195007148225
2.5500000000000004E7,24.652448514754884
3.3000000000000004E7,4.001786056356688
3.2000000000000004E7,7.341949175306458
6500000.000000001,8.357667538924396
2.5000000000000004E7,8.144915313932774
4.600000000000001E7,13.078727987302011
3.1000000000000004E7,6.568557306800532
7000000.000000001,12.431740540899348
1.95E7,3.840416500353713
3.1500000000000004E7,7.667081180981771
4.2E7,4.354465679584666
5500000.000000001,9.667595424133244
1.6000000000000002E7,9.34557849238462
1.6500000000000002E7,11.652457102446485
1500000.0000000002,16.357226304329053
4.300000000000001E7,4.853289626041106
4.15E7,16.70784330788683
3.8E7,2.5414548692013903
4.850000000000001E7,9.585466837303752
1.2500000000000002E7,4.289657872269423
4.350000000000001E7,307.23296428528664
3500000.0000000005,7.953644698779997
1.5500000000000002E7,12.823009186046304
4500000.0,7.410348254218677
1.05E7,13.168630658129311
2.2500000000000004E7,8.202511994074097
4.550000000000001E7,9.874181378785865
9500000.0,22.593907747814015
2.3000000000000004E7,23.606248033174907
3000000.0000000005,16.710520449298635
5000000.0,4.716056654888636
500000.00000000006,5.86545373570917
3.9E7,8.320763829225468
1.3500000000000002E7,6.013065159295255
3.65E7,7.715191444625986
2.1E7,6.820382337212159
1.1500000000000002E7,1.4962776424184547
1.9E7,17.675794942661845
2.1500000000000004E7,14.322963024196953
3.45E7,8.849326175311438
4.650000000000001E7,7.764766562828814
2.7000000000000004E7,8.742674728347621
3.0500000000000004E7,6.673280874908162
6000000.000000001,7.827123981712111
2500000.0,13.427907762548616
3.7E7,11.681116009468548
4.25E7,18.344919072889528
4.450000000000001E7,419.94883403403384
1.8E7,297.4331323886631
3.2500000000000004E7,9.579038302600408
1.4500000000000002E7,71.92670480751785
2.3500000000000004E7,2.191758335648089
1.2000000000000002E7,41.552198550651006
2.0E7,16.71742055570734
2000000.0000000002,16.341242046980586
2.4500000000000004E7,11.610172271004433
4.05E7,6.675955975079406
1.7E7,413.51518022231835
4.1E7,11.53318183261095
4.750000000000001E7,5.754983334493155
4.400000000000001E7,7.856251983045864
2.9000000000000004E7,9.078665886540907
9000000.0,7.696329322568435
4.950000000000001E7,39.74780790681401
2.6500000000000004E7,62.402056841749925
1000000.0000000001,23.390266266787215
2.4000000000000004E7,6.264976048456498
1.0E7,5.273274676292733
3.5E7,58.25561589019329
3.95E7,7.92854474467613
8500000.0,130.0317672999727
3.85E7,23.602611575371306
